aiohttp==3.6.2 \
    --hash=sha256:1e984191d1ec186881ffaed4581092ba04f7c61582a177b187d3a2f07ed9719e \
    --hash=sha256:259ab809ff0727d0e834ac5e8a283dc5e3e0ecc30c4d80b3cd17a4139ce1f326 \
    --hash=sha256:2f4d1a4fdce595c947162333353d4a44952a724fba9ca3205a3df99a33d1307a \
    --hash=sha256:32e5f3b7e511aa850829fbe5aa32eb455e5534eaa4b1ce93231d00e2f76e5654 \
    --hash=sha256:344c780466b73095a72c616fac5ea9c4665add7fc129f285fbdbca3cccf4612a \
    --hash=sha256:460bd4237d2dbecc3b5ed57e122992f60188afe46e7319116da5eb8a9dfedba4 \
    --hash=sha256:4c6efd824d44ae697814a2a85604d8e992b875462c6655da161ff18fd4f29f17 \
    --hash=sha256:50aaad128e6ac62e7bf7bd1f0c0a24bc968a0c0590a726d5a955af193544bcec \
    --hash=sha256:6206a135d072f88da3e71cc501c59d5abffa9d0bb43269a6dcd28d66bfafdbdd \
    --hash=sha256:65f31b622af739a802ca6fd1a3076fd0ae523f8485c52924a89561ba10c49b48 \
    --hash=sha256:ae55bac364c405caa23a4f2d6cfecc6a0daada500274ffca4a9230e7129eac59 \
    --hash=sha256:b778ce0c909a2653741cb4b1ac7015b5c130ab9c897611df43ae6a58523cb965
aiosqlite==0.12.0 \
    --hash=sha256:c1dad5652630b21cec14081a3555213462970ab35d4902f7febe17f43d2202f1
async-timeout==3.0.1 \
    --hash=sha256:0c3c816a028d47f659d6ff5c745cb2acf1f966da1fe5c19c77a70282b25f4c5f \
    --hash=sha256:4291ca197d287d274d0b6cb5d6f8f8f82d434ed288f962539ff18cc9012f9ea3
attrs==19.3.0 \
    --hash=sha256:08a96c641c3a74e44eb59afb61a24f2cb9f4d7188748e76ba4bb5edfa3cb7d1c \
    --hash=sha256:f7b7ce16570fe9965acd6d30101a28f62fb4a7f9e926b3bbc9b61f8b04247e72
bcrypt==3.1.7 \
    --hash=sha256:0258f143f3de96b7c14f762c770f5fc56ccd72f8a1857a451c1cd9a655d9ac89 \
    --hash=sha256:0b0069c752ec14172c5f78208f1863d7ad6755a6fae6fe76ec2c80d13be41e42 \
    --hash=sha256:19a4b72a6ae5bb467fea018b825f0a7d917789bcfe893e53f15c92805d187294 \
    --hash=sha256:5432dd7b34107ae8ed6c10a71b4397f1c853bd39a4d6ffa7e35f40584cffd161 \
    --hash=sha256:6305557019906466fc42dbc53b46da004e72fd7a551c044a827e572c82191752 \
    --hash=sha256:69361315039878c0680be456640f8705d76cb4a3a3fe1e057e0f261b74be4b31 \
    --hash=sha256:6fe49a60b25b584e2f4ef175b29d3a83ba63b3a4df1b4c0605b826668d1b6be5 \
    --hash=sha256:74a015102e877d0ccd02cdeaa18b32aa7273746914a6c5d0456dd442cb65b99c \
    --hash=sha256:763669a367869786bb4c8fcf731f4175775a5b43f070f50f46f0b59da45375d0 \
    --hash=sha256:8b10acde4e1919d6015e1df86d4c217d3b5b01bb7744c36113ea43d529e1c3de \
    --hash=sha256:9fe92406c857409b70a38729dbdf6578caf9228de0aef5bc44f859ffe971a39e \
    --hash=sha256:a190f2a5dbbdbff4b74e3103cef44344bc30e61255beb27310e2aec407766052 \
    --hash=sha256:a595c12c618119255c90deb4b046e1ca3bcfad64667c43d1166f2b04bc72db09 \
    --hash=sha256:c9457fa5c121e94a58d6505cadca8bed1c64444b83b3204928a866ca2e599105 \
    --hash=sha256:cb93f6b2ab0f6853550b74e051d297c27a638719753eb9ff66d1e4072be67133 \
    --hash=sha256:ce4e4f0deb51d38b1611a27f330426154f2980e66582dc5f438aad38b5f24fc1 \
    --hash=sha256:d7bdc26475679dd073ba0ed2766445bb5b20ca4793ca0db32b399dccc6bc84b7 \
    --hash=sha256:ff032765bb8716d9387fd5376d987a937254b0619eff0972779515b5c98820bc
cffi==1.14.0 \
    --hash=sha256:001bf3242a1bb04d985d63e138230802c6c8d4db3668fb545fb5005ddf5bb5ff \
    --hash=sha256:00789914be39dffba161cfc5be31b55775de5ba2235fe49aa28c148236c4e06b \
    --hash=sha256:028a579fc9aed3af38f4892bdcc7390508adabc30c6af4a6e4f611b0c680e6ac \
    --hash=sha256:14491a910663bf9f13ddf2bc8f60562d6bc5315c1f09c704937ef17293fb85b0 \
    --hash=sha256:1cae98a7054b5c9391eb3249b86e0e99ab1e02bb0cc0575da191aedadbdf4384 \
    --hash=sha256:2089ed025da3919d2e75a4d963d008330c96751127dd6f73c8dc0c65041b4c26 \
    --hash=sha256:2d384f4a127a15ba701207f7639d94106693b6cd64173d6c8988e2c25f3ac2b6 \
    --hash=sha256:337d448e5a725bba2d8293c48d9353fc68d0e9e4088d62a9571def317797522b \
    --hash=sha256:399aed636c7d3749bbed55bc907c3288cb43c65c4389964ad5ff849b6370603e \
    --hash=sha256:3b911c2dbd4f423b4c4fcca138cadde747abdb20d196c4a48708b8a2d32b16dd \
    --hash=sha256:3d311bcc4a41408cf5854f06ef2c5cab88f9fded37a3b95936c9879c1640d4c2 \
    --hash=sha256:62ae9af2d069ea2698bf536dcfe1e4eed9090211dbaafeeedf5cb6c41b352f66 \
    --hash=sha256:66e41db66b47d0d8672d8ed2708ba91b2f2524ece3dee48b5dfb36be8c2f21dc \
    --hash=sha256:675686925a9fb403edba0114db74e741d8181683dcf216be697d208857e04ca8 \
    --hash=sha256:7e63cbcf2429a8dbfe48dcc2322d5f2220b77b2e17b7ba023d6166d84655da55 \
    --hash=sha256:8a6c688fefb4e1cd56feb6c511984a6c4f7ec7d2a1ff31a10254f3c817054ae4 \
    --hash=sha256:8c0ffc886aea5df6a1762d0019e9cb05f825d0eec1f520c51be9d198701daee5 \
    --hash=sha256:95cd16d3dee553f882540c1ffe331d085c9e629499ceadfbda4d4fde635f4b7d \
    --hash=sha256:99f748a7e71ff382613b4e1acc0ac83bf7ad167fb3802e35e90d9763daba4d78 \
    --hash=sha256:b8c78301cefcf5fd914aad35d3c04c2b21ce8629b5e4f4e45ae6812e461910fa \
    --hash=sha256:c420917b188a5582a56d8b93bdd8e0f6eca08c84ff623a4c16e809152cd35793 \
    --hash=sha256:c43866529f2f06fe0edc6246eb4faa34f03fe88b64a0a9a942561c8e22f4b71f \
    --hash=sha256:cab50b8c2250b46fe738c77dbd25ce017d5e6fb35d3407606e7a4180656a5a6a \
    --hash=sha256:cef128cb4d5e0b3493f058f10ce32365972c554572ff821e175dbc6f8ff6924f \
    --hash=sha256:cf16e3cf6c0a5fdd9bc10c21687e19d29ad1fe863372b5543deaec1039581a30 \
    --hash=sha256:e56c744aa6ff427a607763346e4170629caf7e48ead6921745986db3692f987f \
    --hash=sha256:e577934fc5f8779c554639376beeaa5657d54349096ef24abe8c74c5d9c117c3 \
    --hash=sha256:f2b0fa0c01d8a0c7483afd9f31d7ecf2d71760ca24499c8697aeb5ca37dc090c
chardet==3.0.4 \
    --hash=sha256:84ab92ed1c4d4f16916e05906b6b75a6c0fb5db821cc65e70cbd64a3e2a5eaae \
    --hash=sha256:fc323ffcaeaed0e0a02bf4d117757b98aed530d9ed4531e3e15460124c106691
ciso8601==2.1.3 \
    --hash=sha256:bdbb5b366058b1c87735603b23060962c439ac9be66f1ae91e8c7dbd7d59e262
click==7.1.2 \
    --hash=sha256:d2b5255c7c6349bc1bd1e59e08cd12acbbd63ce649f2588755783aa94dfb6b1a \
    --hash=sha256:dacca89f4bfadd5de3d7489b7c8a566eee0d3676333fbb50030263894c38c0dc
configparser==5.0.0 \
    --hash=sha256:2ca44140ee259b5e3d8aaf47c79c36a7ab0d5e94d70bd4105c03ede7a20ea5a1 \
    --hash=sha256:cffc044844040c7ce04e9acd1838b5f2e5fa3170182f6fda4d2ea8b0099dbadd
cython==0.29.17 \
    --hash=sha256:00faa77500ca2f865fd7f3126f86e77de3ec0d855dd6cf92fc85b57ebed11655 \
    --hash=sha256:14e218a93d4f2e43e0063a5a0f7f26fe1783d5d20700216c5c4ff092c4553488 \
    --hash=sha256:179ad5569dc101e3e0d9d04305f9a5e03fbf8acf9d93fb543340f8c1a8fb054b \
    --hash=sha256:20cdf3f918c46355128d7c7cb041872ba2863cc11313972c6e390bd3dad968ba \
    --hash=sha256:2a98c9f852b266f0b9a147da4b6699cf6da24b817375f74d51986312373689ab \
    --hash=sha256:3950ae725472ae47bfb41c6bfdb3869a8ac27b5f30405f599a51398512afa224 \
    --hash=sha256:4dbb58f963f6283b31b4ddac44e4f684527b06923efdec72ecb54e70ee91c766 \
    --hash=sha256:4e8d351ee840a4e491f8f0a64da19923ada0ce09d2d818bce0ae6ce1b6837aeb \
    --hash=sha256:4f35752adfd4855d39e38bf08eb6d02f7aa88b1bb420ab86e6d2e37ccd7c88c2 \
    --hash=sha256:5c501742a92cbcef8f3c21d1dcba9c073b37f1218af3586957901730ac6b6665 \
    --hash=sha256:6361588cb1d82875bcfbad83d7dd66c442099759f895cf547995f00601f9caf2 \
    --hash=sha256:719eddf050a1c8b0abbd74b0c388523cf618c3d9fe3bf20a350f4eafa43776e6 \
    --hash=sha256:785d6e88a3bb10ce6425d23f0a740a21b0bfc9e8d371fea7edba0eaa0ec57d96 \
    --hash=sha256:788192badd3b1ebb1a72a5c6cc2a07b692ca4c1c1fe4431fdd3c0e439e2c0a6d \
    --hash=sha256:7c8ac5bc9726ccb1a1cce1af4ceb7589228db6c57ada3bfcd461075abe3a6a7b \
    --hash=sha256:7cec6bd82fd92f85790908fdc7a43a8a5442606e6d771d5b32a1ab8a39ad1a65 \
    --hash=sha256:7d597733ad0e7fc545df39100ee3b24290ce35586466dee4fa6018d4b8815d72 \
    --hash=sha256:809896928abce18e7c91a28b2705473ca4f15b9a53f433495845a882e15c09d8 \
    --hash=sha256:8135cc7de72805833a118e7c8a255daddd35875d17ea21f6c356200b0fa4b732 \
    --hash=sha256:86ae455b1dd7041b4b8a15499fe72f3d3f990f78a794deb799ee2ef7db389ca0 \
    --hash=sha256:8ef49cafea89d99ffc2cf37af2f0f2b7d219080574f14a422f701bcaa85c7167 \
    --hash=sha256:96d18413a33aa5ce51a5554615ba01e3fdb26126d8678459330d052f0bdf60ec \
    --hash=sha256:a5ebd8fe5a3d97924bd89d449914d1c5b6d084f4b124a4eb28e4412d09fb0f20 \
    --hash=sha256:b19a1aa98192d44d7254613a1f9c382ef381deb79289f2ff446d1447d19085aa \
    --hash=sha256:b6f7d2cf2f6b246fd04696d6d346489628f94f72a4988682ea0591b632370a1f \
    --hash=sha256:c56f658ab6f387619a3668cd78cf2d3459324d9ea3cb39cce4d72ef5bce8f318 \
    --hash=sha256:c68f3015cbb0f5bc402829bad0a6b907889413f2e28cc0873dc1443de0f1a808 \
    --hash=sha256:c78fd0bdf5915f4df730298e6cc7197e4c6aa5285d7c37491366a38125b3e0ab \
    --hash=sha256:dcfee6312cf8f4f4839bae22f323a0e885c4237e2187202ab12def8a5460ca4c \
    --hash=sha256:e146b4b4ed4937a40e9e5c27b264adfce4ae4b7640d46eeffd3eef123b0170a2 \
    --hash=sha256:ea75bbc076d4a5605d04c72c8c7a933f51473b0bcecd79295256b9ecd75cca49 \
    --hash=sha256:f7b20838f2534ad0d231c4c6e09acbdd40fb995a9671bb05839f7879093ec5e3 \
    --hash=sha256:fce2e7f500b1456f96d5b8ceefba243cae7018ad8b3f791e62c20a0f0fbba71c
gunicorn==20.0.4 \
    --hash=sha256:1904bb2b8a43658807108d59c3f3d56c2b6121a701161de0ddf9ad140073c626 \
    --hash=sha256:cd4a810dd51bf497552cf3f863b575dabd73d6ad6a91075b65936b151cbf4f9c
idna==2.9 \
    --hash=sha256:7588d1c14ae4c77d74036e8c22ff447b26d0fde8f007354fd48a7814db15b7cb \
    --hash=sha256:a068a21ceac8a4d63dbfd964670474107f541babbd2250d61922f029858365fa
jinja2==2.11.2 \
    --hash=sha256:89aab215427ef59c34ad58735269eb58b1a5808103067f7bb9d5836c651b3bb0 \
    --hash=sha256:f0a4641d3cf955324a89c04f3d94663aa4d638abe8f733ecd3582848e1c37035
markupsafe==1.1.1 \
    --hash=sha256:00bc623926325b26bb9605ae9eae8a215691f33cae5df11ca5424f06f2d1f473 \
    --hash=sha256:09027a7803a62ca78792ad89403b1b7a73a01c8cb65909cd876f7fcebd79b161 \
    --hash=sha256:09c4b7f37d6c648cb13f9230d847adf22f8171b1ccc4d5682398e77f40309235 \
    --hash=sha256:1027c282dad077d0bae18be6794e6b6b8c91d58ed8a8d89a89d59693b9131db5 \
    --hash=sha256:13d3144e1e340870b25e7b10b98d779608c02016d5184cfb9927a9f10c689f42 \
    --hash=sha256:24982cc2533820871eba85ba648cd53d8623687ff11cbb805be4ff7b4c971aff \
    --hash=sha256:29872e92839765e546828bb7754a68c418d927cd064fd4708fab9fe9c8bb116b \
    --hash=sha256:43a55c2930bbc139570ac2452adf3d70cdbb3cfe5912c71cdce1c2c6bbd9c5d1 \
    --hash=sha256:46c99d2de99945ec5cb54f23c8cd5689f6d7177305ebff350a58ce5f8de1669e \
    --hash=sha256:500d4957e52ddc3351cabf489e79c91c17f6e0899158447047588650b5e69183 \
    --hash=sha256:535f6fc4d397c1563d08b88e485c3496cf5784e927af890fb3c3aac7f933ec66 \
    --hash=sha256:596510de112c685489095da617b5bcbbac7dd6384aeebeda4df6025d0256a81b \
    --hash=sha256:62fe6c95e3ec8a7fad637b7f3d372c15ec1caa01ab47926cfdf7a75b40e0eac1 \
    --hash=sha256:6788b695d50a51edb699cb55e35487e430fa21f1ed838122d722e0ff0ac5ba15 \
    --hash=sha256:6dd73240d2af64df90aa7c4e7481e23825ea70af4b4922f8ede5b9e35f78a3b1 \
    --hash=sha256:717ba8fe3ae9cc0006d7c451f0bb265ee07739daf76355d06366154ee68d221e \
    --hash=sha256:79855e1c5b8da654cf486b830bd42c06e8780cea587384cf6545b7d9ac013a0b \
    --hash=sha256:7c1699dfe0cf8ff607dbdcc1e9b9af1755371f92a68f706051cc8c37d447c905 \
    --hash=sha256:88e5fcfb52ee7b911e8bb6d6aa2fd21fbecc674eadd44118a9cc3863f938e735 \
    --hash=sha256:8defac2f2ccd6805ebf65f5eeb132adcf2ab57aa11fdf4c0dd5169a004710e7d \
    --hash=sha256:98c7086708b163d425c67c7a91bad6e466bb99d797aa64f965e9d25c12111a5e \
    --hash=sha256:9add70b36c5666a2ed02b43b335fe19002ee5235efd4b8a89bfcf9005bebac0d \
    --hash=sha256:9bf40443012702a1d2070043cb6291650a0841ece432556f784f004937f0f32c \
    --hash=sha256:ade5e387d2ad0d7ebf59146cc00c8044acbd863725f887353a10df825fc8ae21 \
    --hash=sha256:b00c1de48212e4cc9603895652c5c410df699856a2853135b3967591e4beebc2 \
    --hash=sha256:b1282f8c00509d99fef04d8ba936b156d419be841854fe901d8ae224c59f0be5 \
    --hash=sha256:b2051432115498d3562c084a49bba65d97cf251f5a331c64a12ee7e04dacc51b \
    --hash=sha256:ba59edeaa2fc6114428f1637ffff42da1e311e29382d81b339c1817d37ec93c6 \
    --hash=sha256:c8716a48d94b06bb3b2524c2b77e055fb313aeb4ea620c8dd03a105574ba704f \
    --hash=sha256:cd5df75523866410809ca100dc9681e301e3c27567cf498077e8551b6d20e42f \
    --hash=sha256:cdb132fc825c38e1aeec2c8aa9338310d29d337bebbd7baa06889d09a60a1fa2 \
    --hash=sha256:e249096428b3ae81b08327a63a485ad0878de3fb939049038579ac0ef61e17e7 \
    --hash=sha256:e8313f01ba26fbbe36c7be1966a7b7424942f670f38e666995b88d012765b9be
multidict==4.7.5 \
    --hash=sha256:317f96bc0950d249e96d8d29ab556d01dd38888fbe68324f46fd834b430169f1 \
    --hash=sha256:42f56542166040b4474c0c608ed051732033cd821126493cf25b6c276df7dd35 \
    --hash=sha256:4b7df040fb5fe826d689204f9b544af469593fb3ff3a069a6ad3409f742f5928 \
    --hash=sha256:544fae9261232a97102e27a926019100a9db75bec7b37feedd74b3aa82f29969 \
    --hash=sha256:620b37c3fea181dab09267cd5a84b0f23fa043beb8bc50d8474dd9694de1fa6e \
    --hash=sha256:6e6fef114741c4d7ca46da8449038ec8b1e880bbe68674c01ceeb1ac8a648e78 \
    --hash=sha256:7774e9f6c9af3f12f296131453f7b81dabb7ebdb948483362f5afcaac8a826f1 \
    --hash=sha256:85cb26c38c96f76b7ff38b86c9d560dea10cf3459bb5f4caf72fc1bb932c7136 \
    --hash=sha256:a326f4240123a2ac66bb163eeba99578e9d63a8654a59f4688a79198f9aa10f8 \
    --hash=sha256:ae402f43604e3b2bc41e8ea8b8526c7fa7139ed76b0d64fc48e28125925275b2 \
    --hash=sha256:aee283c49601fa4c13adc64c09c978838a7e812f85377ae130a24d7198c0331e \
    --hash=sha256:b51249fdd2923739cd3efc95a3d6c363b67bbf779208e9f37fd5e68540d1a4d4 \
    --hash=sha256:bb519becc46275c594410c6c28a8a0adc66fe24fef154a9addea54c1adb006f5 \
    --hash=sha256:c2c37185fb0af79d5c117b8d2764f4321eeb12ba8c141a95d0aa8c2c1d0a11dd \
    --hash=sha256:dc561313279f9d05a3d0ffa89cd15ae477528ea37aa9795c4654588a3287a9ab \
    --hash=sha256:e439c9a10a95cb32abd708bb8be83b2134fa93790a4fb0535ca36db3dda94d20 \
    --hash=sha256:fc3b4adc2ee8474cb3cd2a155305d5f8eda0a9c91320f83e55748e1fcb68f8e3
pendulum==2.0.5 \
    --hash=sha256:1cde6e3c6310fb882c98f373795f807cb2bd6af01f34d2857e6e283b5ee91e09 \
    --hash=sha256:485aef2089defee88607d37d5bc238934d0b90993d7bf9ceb36e481af41e9c66 \
    --hash=sha256:57801754e05f30e8a7e4d24734c9fad82c6c3ec489151555f0fc66bb32ba6d6d \
    --hash=sha256:7ee344bc87cb425b04717b90d14ffde14c1dd64eaa73060b3772edcf57f3e866 \
    --hash=sha256:c460f4d8dc41ec3c4377ac1807678cd72fe5e973cc2943c104ffdeaac32dacb7 \
    --hash=sha256:d3078e007315a959989c41cee5cfd63cfeeca21dd3d8295f4bc24199489e9b6c
pycapnp-for-marv==0.6.3 \
    --hash=sha256:4df5b460d86a9d8cb5a7ca17609b12a2a9701fb2e15ed393dbf0aa656ae2bb66
pycparser==2.20 \
    --hash=sha256:2d475327684562c3a96cc71adf7dc8c4f0565175cf86b6d7a404ff4c771f15f0 \
    --hash=sha256:7582ad22678f0fcd81102833f60ef8d0e57288b6b5fb00323d101be910e35705
pydantic==1.5.1 \
    --hash=sha256:0a1cdf24e567d42dc762d3fed399bd211a13db2e8462af9dfa93b34c41648efb \
    --hash=sha256:2007eb062ed0e57875ce8ead12760a6e44bf5836e6a1a7ea81d71eeecf3ede0f \
    --hash=sha256:20a15a303ce1e4d831b4e79c17a4a29cb6740b12524f5bba3ea363bff65732bc \
    --hash=sha256:2a6904e9f18dea58f76f16b95cba6a2f20b72d787abd84ecd67ebc526e61dce6 \
    --hash=sha256:3714a4056f5bdbecf3a41e0706ec9b228c9513eee2ad884dc2c568c4dfa540e9 \
    --hash=sha256:473101121b1bd454c8effc9fe66d54812fdc128184d9015c5aaa0d4e58a6d338 \
    --hash=sha256:68dece67bff2b3a5cc188258e46b49f676a722304f1c6148ae08e9291e284d98 \
    --hash=sha256:70f27d2f0268f490fe3de0a9b6fca7b7492b8fd6623f9fecd25b221ebee385e3 \
    --hash=sha256:8433dbb87246c0f562af75d00fa80155b74e4f6924b0db6a2078a3cd2f11c6c4 \
    --hash=sha256:8be325fc9da897029ee48d1b5e40df817d97fe969f3ac3fd2434ba7e198c55d5 \
    --hash=sha256:93b9f265329d9827f39f0fca68f5d72cc8321881cdc519a1304fa73b9f8a75bd \
    --hash=sha256:9be755919258d5d168aeffbe913ed6e8bd562e018df7724b68cabdee3371e331 \
    --hash=sha256:ab863853cb502480b118187d670f753be65ec144e1654924bec33d63bc8b3ce2 \
    --hash=sha256:b96ce81c4b5ca62ab81181212edfd057beaa41411cd9700fbcb48a6ba6564b4e \
    --hash=sha256:da8099fca5ee339d5572cfa8af12cf0856ae993406f0b1eb9bb38c8a660e7416 \
    --hash=sha256:e2c753d355126ddd1eefeb167fa61c7037ecd30b98e7ebecdc0d1da463b4ea09 \
    --hash=sha256:f0018613c7a0d19df3240c2a913849786f21b6539b9f23d85ce4067489dfacfa
pyjwt==1.7.1 \
    --hash=sha256:5c6eca3c2940464d106b99ba83b00c6add741c9becaec087fb7ccdefea71350e \
    --hash=sha256:8d59a976fb773f3e6a39c85636357c4f0e242707394cadadd9814f5cbaa20e96
pypika==0.37.1 \
    --hash=sha256:e2939312e3c209dd388281f973e7470b6969fdb332c85d4bf5b98923879b2d5f
python-dateutil==2.8.1 \
    --hash=sha256:73ebfe9dbf22e832286dafa60473e4cd239f8592f699aa5adaf10050e6e1823c \
    --hash=sha256:75bb3f31ea686f1197762692a9ee6a7550b59fc6ca3a1f4b5d7e32fb98e2da2a
pytzdata==2019.3 \
    --hash=sha256:84c52b9a47d097fcd483f047a544979de6c3a86e94c845e3569e9f8acd0fa071 \
    --hash=sha256:fac06f7cdfa903188dc4848c655e4adaee67ee0f2fe08e7daf815cf2a761ee5e
setproctitle==1.1.10 \
    --hash=sha256:6283b7a58477dd8478fbb9e76defb37968ee4ba47b05ec1c053cb39638bd7398 \
    --hash=sha256:6a035eddac62898786aed2c2eee7334c28cfc8106e8eb29fdd117cac56c6cdf0
six==1.14.0 \
    --hash=sha256:236bdbdce46e6e6a3d61a337c0f8b763ca1e8717c03b369e87a7ec7ce1319c0a \
    --hash=sha256:8f3cd2e254d8f793e7f3d6d9df77b92252b52637291d0f0da013c76ea2724b6c
tortoise-orm==0.15.24 \
    --hash=sha256:c3c4e8e837c1987b958775510822dba1e997b90392cc3acb419c62b03ff2f134
typing-extensions==3.7.4.2 \
    --hash=sha256:6e95524d8a547a91e08f404ae485bbb71962de46967e1b71a0cb89af24e761c5 \
    --hash=sha256:79ee589a3caca649a9bfd2a8de4709837400dfa00b6cc81962a1e6a1815969ae \
    --hash=sha256:f8d2bd89d25bc39dabe7d23df520442fa1d8969b82544370e03d88b5a591c392
uvloop==0.14.0 \
    --hash=sha256:08b109f0213af392150e2fe6f81d33261bb5ce968a288eb698aad4f46eb711bd \
    --hash=sha256:123ac9c0c7dd71464f58f1b4ee0bbd81285d96cdda8bc3519281b8973e3a461e \
    --hash=sha256:4315d2ec3ca393dd5bc0b0089d23101276778c304d42faff5dc4579cb6caef09 \
    --hash=sha256:4544dcf77d74f3a84f03dd6278174575c44c67d7165d4c42c71db3fdc3860726 \
    --hash=sha256:afd5513c0ae414ec71d24f6f123614a80f3d27ca655a4fcf6cabe50994cc1891 \
    --hash=sha256:b4f591aa4b3fa7f32fb51e2ee9fea1b495eb75b0b3c8d0ca52514ad675ae63f7 \
    --hash=sha256:bcac356d62edd330080aed082e78d4b580ff260a677508718f88016333e2c9c5 \
    --hash=sha256:e7514d7a48c063226b7d06617cbb12a14278d4323a065a8d46a7962686ce2e95 \
    --hash=sha256:f07909cd9fc08c52d294b1570bba92186181ca01fe3dc9ffba68955273dd7362
yarl==1.4.2 \
    --hash=sha256:0c2ab325d33f1b824734b3ef51d4d54a54e0e7a23d13b86974507602334c2cce \
    --hash=sha256:0ca2f395591bbd85ddd50a82eb1fde9c1066fafe888c5c7cc1d810cf03fd3cc6 \
    --hash=sha256:2098a4b4b9d75ee352807a95cdf5f10180db903bc5b7270715c6bbe2551f64ce \
    --hash=sha256:25e66e5e2007c7a39541ca13b559cd8ebc2ad8fe00ea94a2aad28a9b1e44e5ae \
    --hash=sha256:26d7c90cb04dee1665282a5d1a998defc1a9e012fdca0f33396f81508f49696d \
    --hash=sha256:308b98b0c8cd1dfef1a0311dc5e38ae8f9b58349226aa0533f15a16717ad702f \
    --hash=sha256:3ce3d4f7c6b69c4e4f0704b32eca8123b9c58ae91af740481aa57d7857b5e41b \
    --hash=sha256:58cd9c469eced558cd81aa3f484b2924e8897049e06889e8ff2510435b7ef74b \
    --hash=sha256:5b10eb0e7f044cf0b035112446b26a3a2946bca9d7d7edb5e54a2ad2f6652abb \
    --hash=sha256:6faa19d3824c21bcbfdfce5171e193c8b4ddafdf0ac3f129ccf0cdfcb083e462 \
    --hash=sha256:944494be42fa630134bf907714d40207e646fd5a94423c90d5b514f7b0713fea \
    --hash=sha256:a161de7e50224e8e3de6e184707476b5a989037dcb24292b391a3d66ff158e70 \
    --hash=sha256:a4844ebb2be14768f7994f2017f70aca39d658a96c786211be5ddbe1c68794c1 \
    --hash=sha256:c2b509ac3d4b988ae8769901c66345425e361d518aecbe4acbfc2567e416626a \
    --hash=sha256:c9959d49a77b0e07559e579f38b2f3711c2b8716b8410b320bf9713013215a1b \
    --hash=sha256:d8cdee92bc930d8b09d8bd2043cedd544d9c8bd7436a77678dd602467a993080 \
    --hash=sha256:e15199cdb423316e15f108f51249e44eb156ae5dba232cb73be555324a1d49c2

# The following packages are considered to be unsafe in a requirements file:
setuptools==46.1.3 \
    --hash=sha256:4fe404eec2738c20ab5841fa2d791902d2a645f32318a7850ef26f8d7215a8ee \
    --hash=sha256:795e0475ba6cd7fa082b1ee6e90d552209995627a2a227a47c6ea93282f4bfb1
